<svg width="20px" height="20px" viewBox="0 0 20 19" version="1.1" xmlns="http://www.w3.org/2000/svg">
    <g id="List" stroke="none" stroke-width="1.25" fill="none" fill-rule="evenodd">
        <g id="Mobile-Portrait" transform="translate(-275.000000, -23.000000)" stroke="currentColor">
            <g id="Navigation">
                <g id="Button" transform="translate(267.000000, 15.000000)">
                    <g id="Hamburger" transform="translate(8.000000, 8.000000)">
                        <rect id="Rectangle" x="0.5" y="0.5" width="19" height="4" rx="2"></rect>
                        <rect id="Rectangle" x="0.5" y="14.5" width="19" height="4" rx="2"></rect>
                        <rect id="Rectangle" x="0.5" y="7.5" width="19" height="4" rx="2"></rect>
                    </g>
                </g>
            </g>
        </g>
    </g>
</svg>